"","text","favorited","favoriteCount","replyToSN","created","truncated","replyToSID","id","replyToUID","statusSource","screenName","retweetCount","isRetweet","retweeted","longitude","latitude"
"1","Pair of researchers suggest black holes",FALSE,0,NA,2014-06-01 03:13:49,FALSE,NA,"472939043094007809",NA,"<a href=""http://twitter.com/download/android"" rel=""nofollow"">Twitter for Android</a>","NotOnTwtr",0,FALSE,FALSE,NA,NA
"519","Pair Turning up in @miss_killak driveway AYYYYYYEEEE",FALSE,2,NA,2014-05-21 02:07:35,FALSE,NA,"468936108693532673",NA,"<a href=""http://twitter.com/download/iphone"" rel=""nofollow"">Twitter for iPhone</a>","thechadstoner",0,FALSE,FALSE,"-85.85356179","34.87027727"
